…
```r
foobar <- pbar %>% filter(start < ymd("1960-01-01")) %>%
  filter(start > ymd("1938-06-13")) %>%
  group_by(Admin1Name) %>%
  select(Admin1Name, CountValue, start) %>% padr::pad(interval = "week")

foobar %>% group_by(Admin1Name) %>%
  summarise(fracNA = mean(is.na(CountValue))) -> fracNas
fracNas
```

```
## # A tibble: 51 x 2
##    Admin1Name           fracNA
##    <fct>                 <dbl>
##  1 ALABAMA              0.0361
##  2 ALASKA               0.850 
##  3 ARIZONA              0.0361
##  4 ARKANSAS             0.0317
##  5 CALIFORNIA           0.0263
##  6 COLORADO             0.0547
##  7 CONNECTICUT          0.0230
##  8 DELAWARE             0.232 
##  9 DISTRICT OF COLUMBIA 0.101 
## 10 FLORIDA              0.0449
## # … with 41 more rows
```
…
